{
    "studyLevels": 
    [
        {
            "name": "Foundation / Preuniversity Programme"
        },

        {
            "name": "Undergraudate Programme"
        },
        
        {
            "name": "Postgraduate Programme"
        }
    ]
}